javaFX\controllers\MainWindowController$1.class
javaFX\helper\classes\Constants.class
javaFX\helper\classes\MoveConditions.class
http\client\RunHttpRequestSingleton.class
javaFX\helper\classes\HttpReqMethod.class
javaFX\controllers\AuthenticationWindowController.class
main\ParkingAppMain.class
http\client\RunHttpRequestSingleton$1.class
main\ParkingAppMain$1.class
javaFX\controllers\MainWindowController$2.class
javaFX\controllers\MainWindowController$CarFacing.class
javaFX\controllers\MainWindowController.class
